<?xml version="1.0" encoding="utf-8"?>
<svg version="1.1" id="Слой_1" xmlns="http://www.w3.org/2000/svg" xmlns:xlink="http://www.w3.org/1999/xlink" x="0px" y="0px"
     width="512px" height="512px" viewBox="0 -132 512 512" style="enable-background:new 0 -132 512 512;" xml:space="preserve">
<path d="M504,257.5c0-137-111-248-248-248S8,120.5,8,257.5c0,123.8,90.7,226.4,209.3,245V329.2h-63v-71.7h63v-54.6
	c0-62.2,37-96.5,93.7-96.5c27.1,0,55.5,4.8,55.5,4.8v61h-31.3c-30.8,0-40.4,19.1-40.4,38.7v46.6h68.8l-11,71.7h-57.8v173.3
	C413.3,483.9,504,381.3,504,257.5z"/>
</svg>
