<?xml version="1.0" encoding="utf-8"?>
<svg version="1.1" id="Слой_1" xmlns="http://www.w3.org/2000/svg" xmlns:xlink="http://www.w3.org/1999/xlink" x="0px" y="0px"
     width="512px" height="512px" viewBox="0 -132 512 512" style="enable-background:new 0 -132 512 512;" xml:space="preserve">
<path d="M456.9,221.2v15h8v72.1c0,31.2-24.9,57.1-56.1,57.1h-64.1c-31.2,0-57.1-25.9-57.1-57.1v-72.1h73.1v-15H0v47.1h32.1v40.1
	c0,39.5,32.6,72.1,72.1,72.1h64.1c39.5,0,71.1-32.6,71.1-72.1v-40.1h33.1v40.1c0,39.5,32.6,72.1,72.1,72.1h64.1
	c39.5,0,71.1-32.6,71.1-72.1v-40.1H512v-47.1H456.9z M32.1,253.2H15v-17h17V253.2z M224.4,308.3c0,31.2-24.9,57.1-56.1,57.1h-64.1
	c-31.2,0-57.1-25.9-57.1-57.1v-72.1h177.3V308.3z M272.5,253.2h-33.1v-17h33.1V253.2z M497,253.2h-17v-17h17V253.2z"/>
<path d="M122.9,246.9l10.6,10.6l-64.1,64.1L58.8,311L122.9,246.9z"/>
<path d="M117.5,321.7l-10.6-10.6l24-24l10.6,10.6L117.5,321.7z"/>
<path d="M374,257.6l-64.1,64.1L299.3,311l64.1-64.1L374,257.6z"/>
<path d="M358,321.7l-10.6-10.6l24-24l10.6,10.6L358,321.7z"/>
<path d="M401.3,260.3h15c0-13.5,11-24.5,24.5-24.5v-15c-13.5,0-24.5-11-24.5-24.5h-15c0,13.5-11,24.5-24.6,24.5v15
	C390.3,235.7,401.3,246.7,401.3,260.3z M408.8,219.3c2.5,3.4,5.5,6.4,8.9,8.9c-3.4,2.5-6.4,5.5-8.9,8.9c-2.5-3.4-5.5-6.4-8.9-8.9
	C403.3,225.7,406.3,222.7,408.8,219.3z"/>
<path d="M457.4,196.1h15c0-13.5,11-24.5,24.5-24.5v-15c-13.5,0-24.5-11-24.5-24.5h-15c0,13.5-11,24.5-24.6,24.5v15
	C446.4,171.6,457.4,182.6,457.4,196.1z M464.9,155.2c2.5,3.4,5.5,6.4,8.9,8.9c-3.4,2.5-6.4,5.5-8.9,8.9c-2.5-3.4-5.5-6.4-8.9-8.9
	C459.4,161.6,462.4,158.6,464.9,155.2z"/>
</svg>
